{
  "items": [
    {
      "id": "872f12e6-b503-417b-8ef5-1274a0d69063",
      "projectId": "6d5fff43-d691-445d-a41a-7d0c639080e6",
      "name": "TypeError",
      "message": "Object doesn’t support property q",
      "stack": "Object doesn’t support property \"x\"\n    at eval (webpack-internal:///./pages/index.tsx:37:7)\n    at invokePassiveEffectCreate (webpack-internal:///./node_modules/react-dom/cjs/react-dom.development.js:23482:20)\n    at HTMLUnknownElement.callCallback (webpack-internal:///./node_modules/react-dom/cjs/react-dom.development.js:3945:14)\n    at HTMLUnknownElement.sentryWrapped (webpack-internal:///./node_modules/@sentry/browser/esm/helpers.js:81:23)\n    at Object.invokeGuardedCallbackDev (webpack-internal:///./node_modules/react-dom/cjs/react-dom.development.js:3994:16)\n    at invokeGuardedCallback (webpack-internal:///./node_modules/react-dom/cjs/react-dom.development.js:4056:31)\n    at flushPassiveEffectsImpl (webpack-internal:///./node_modules/react-dom/cjs/react-dom.development.js:23569:9)\n    at unstable_runWithPriority (webpack-internal:///./node_modules/scheduler/cjs/scheduler.development.js:468:12)\n    at runWithPriority$1 (webpack-internal:///./node_modules/react-dom/cjs/react-dom.development.js:11276:10)\n    at flushPassiveEffects (webpack-internal:///./node_modules/react-dom/cjs/react-dom.development.js:23442:14)\n    at eval (webpack-internal:///./node_modules/react-dom/cjs/react-dom.development.js:23319:11)\n    at workLoop (webpack-internal:///./node_modules/scheduler/cjs/scheduler.development.js:417:34)\n    at flushWork (webpack-internal:///./node_modules/scheduler/cjs/scheduler.development.js:390:14)\n    at MessagePort.performWorkUntilDeadline (webpack-internal:///./node_modules/scheduler/cjs/scheduler.development.js:157:27)",
      "level": "warning",
      "status": "open",
      "numEvents": 3,
      "numUsers": 3
    },
    {
      "id": "2cb983c1-b46d-44a8-82a2-5d0c4389dc77",
      "projectId": "6d5fff43-d691-445d-a41a-7d0c639080e6",
      "name": "InternalError",
      "message": "too much recursion",
      "stack": "too much recursion\n    at eval (webpack-internal:///./pages/index.tsx:37:7)\n    at invokePassiveEffectCreate (webpack-internal:///./node_modules/react-dom/cjs/react-dom.development.js:23482:20)\n    at HTMLUnknownElement.callCallback (webpack-internal:///./node_modules/react-dom/cjs/react-dom.development.js:3945:14)\n    at HTMLUnknownElement.sentryWrapped (webpack-internal:///./node_modules/@sentry/browser/esm/helpers.js:81:23)\n    at Object.invokeGuardedCallbackDev (webpack-internal:///./node_modules/react-dom/cjs/react-dom.development.js:3994:16)\n    at invokeGuardedCallback (webpack-internal:///./node_modules/react-dom/cjs/react-dom.development.js:4056:31)\n    at flushPassiveEffectsImpl (webpack-internal:///./node_modules/react-dom/cjs/react-dom.development.js:23569:9)\n    at unstable_runWithPriority (webpack-internal:///./node_modules/scheduler/cjs/scheduler.development.js:468:12)\n    at runWithPriority$1 (webpack-internal:///./node_modules/react-dom/cjs/react-dom.development.js:11276:10)\n    at flushPassiveEffects (webpack-internal:///./node_modules/react-dom/cjs/react-dom.development.js:23442:14)\n    at eval (webpack-internal:///./node_modules/react-dom/cjs/react-dom.development.js:23319:11)\n    at workLoop (webpack-internal:///./node_modules/scheduler/cjs/scheduler.development.js:417:34)\n    at flushWork (webpack-internal:///./node_modules/scheduler/cjs/scheduler.development.js:390:14)\n    at MessagePort.performWorkUntilDeadline (webpack-internal:///./node_modules/scheduler/cjs/scheduler.development.js:157:27)",
      "level": "error",
      "status": "open",
      "numEvents": 5,
      "numUsers": 5
    },
    {
      "id": "37c14d52-1a01-491b-ae19-3ba0e18245f8",
      "projectId": "6d5fff43-d691-445d-a41a-7d0c639080e6",
      "name": "TypeError",
      "message": "Cannot read property f of undefined",
      "stack": "Cannot read property \"x\" of undefined\n    at eval (webpack-internal:///./pages/index.tsx:37:7)\n    at invokePassiveEffectCreate (webpack-internal:///./node_modules/react-dom/cjs/react-dom.development.js:23482:20)\n    at HTMLUnknownElement.callCallback (webpack-internal:///./node_modules/react-dom/cjs/react-dom.development.js:3945:14)\n    at HTMLUnknownElement.sentryWrapped (webpack-internal:///./node_modules/@sentry/browser/esm/helpers.js:81:23)\n    at Object.invokeGuardedCallbackDev (webpack-internal:///./node_modules/react-dom/cjs/react-dom.development.js:3994:16)\n    at invokeGuardedCallback (webpack-internal:///./node_modules/react-dom/cjs/react-dom.development.js:4056:31)\n    at flushPassiveEffectsImpl (webpack-internal:///./node_modules/react-dom/cjs/react-dom.development.js:23569:9)\n    at unstable_runWithPriority (webpack-internal:///./node_modules/scheduler/cjs/scheduler.development.js:468:12)\n    at runWithPriority$1 (webpack-internal:///./node_modules/react-dom/cjs/react-dom.development.js:11276:10)\n    at flushPassiveEffects (webpack-internal:///./node_modules/react-dom/cjs/react-dom.development.js:23442:14)\n    at eval (webpack-internal:///./node_modules/react-dom/cjs/react-dom.development.js:23319:11)\n    at workLoop (webpack-internal:///./node_modules/scheduler/cjs/scheduler.development.js:417:34)\n    at flushWork (webpack-internal:///./node_modules/scheduler/cjs/scheduler.development.js:390:14)\n    at MessagePort.performWorkUntilDeadline (webpack-internal:///./node_modules/scheduler/cjs/scheduler.development.js:157:27)",
      "level": "error",
      "status": "open",
      "numEvents": 4,
      "numUsers": 3
    },
    {
      "id": "81dfe027-9d72-446e-b226-200c1b9e8fea",
      "projectId": "6d5fff43-d691-445d-a41a-7d0c639080e6",
      "name": "SyntaxError",
      "message": "Unexpected '#' used outside of class body",
      "stack": "Unexpected '#' used outside of class body\n    at eval (webpack-internal:///./pages/index.tsx:37:7)\n    at invokePassiveEffectCreate (webpack-internal:///./node_modules/react-dom/cjs/react-dom.development.js:23482:20)\n    at HTMLUnknownElement.callCallback (webpack-internal:///./node_modules/react-dom/cjs/react-dom.development.js:3945:14)\n    at HTMLUnknownElement.sentryWrapped (webpack-internal:///./node_modules/@sentry/browser/esm/helpers.js:81:23)\n    at Object.invokeGuardedCallbackDev (webpack-internal:///./node_modules/react-dom/cjs/react-dom.development.js:3994:16)\n    at invokeGuardedCallback (webpack-internal:///./node_modules/react-dom/cjs/react-dom.development.js:4056:31)\n    at flushPassiveEffectsImpl (webpack-internal:///./node_modules/react-dom/cjs/react-dom.development.js:23569:9)\n    at unstable_runWithPriority (webpack-internal:///./node_modules/scheduler/cjs/scheduler.development.js:468:12)\n    at runWithPriority$1 (webpack-internal:///./node_modules/react-dom/cjs/react-dom.development.js:11276:10)\n    at flushPassiveEffects (webpack-internal:///./node_modules/react-dom/cjs/react-dom.development.js:23442:14)\n    at eval (webpack-internal:///./node_modules/react-dom/cjs/react-dom.development.js:23319:11)\n    at workLoop (webpack-internal:///./node_modules/scheduler/cjs/scheduler.development.js:417:34)\n    at flushWork (webpack-internal:///./node_modules/scheduler/cjs/scheduler.development.js:390:14)\n    at MessagePort.performWorkUntilDeadline (webpack-internal:///./node_modules/scheduler/cjs/scheduler.development.js:157:27)",
      "level": "warning",
      "status": "open",
      "numEvents": 3,
      "numUsers": 3
    },
    {
      "id": "9bdda5b5-5d58-4fbd-974b-1a9c360beffd",
      "projectId": "6d5fff43-d691-445d-a41a-7d0c639080e6",
      "name": "TypeError",
      "message": "Reduce of empty array with no initial value",
      "stack": "Reduce of empty array with no initial value\n    at eval (webpack-internal:///./pages/index.tsx:37:7)\n    at invokePassiveEffectCreate (webpack-internal:///./node_modules/react-dom/cjs/react-dom.development.js:23482:20)\n    at HTMLUnknownElement.callCallback (webpack-internal:///./node_modules/react-dom/cjs/react-dom.development.js:3945:14)\n    at HTMLUnknownElement.sentryWrapped (webpack-internal:///./node_modules/@sentry/browser/esm/helpers.js:81:23)\n    at Object.invokeGuardedCallbackDev (webpack-internal:///./node_modules/react-dom/cjs/react-dom.development.js:3994:16)\n    at invokeGuardedCallback (webpack-internal:///./node_modules/react-dom/cjs/react-dom.development.js:4056:31)\n    at flushPassiveEffectsImpl (webpack-internal:///./node_modules/react-dom/cjs/react-dom.development.js:23569:9)\n    at unstable_runWithPriority (webpack-internal:///./node_modules/scheduler/cjs/scheduler.development.js:468:12)\n    at runWithPriority$1 (webpack-internal:///./node_modules/react-dom/cjs/react-dom.development.js:11276:10)\n    at flushPassiveEffects (webpack-internal:///./node_modules/react-dom/cjs/react-dom.development.js:23442:14)\n    at eval (webpack-internal:///./node_modules/react-dom/cjs/react-dom.development.js:23319:11)\n    at workLoop (webpack-internal:///./node_modules/scheduler/cjs/scheduler.development.js:417:34)\n    at flushWork (webpack-internal:///./node_modules/scheduler/cjs/scheduler.development.js:390:14)\n    at MessagePort.performWorkUntilDeadline (webpack-internal:///./node_modules/scheduler/cjs/scheduler.development.js:157:27)",
      "level": "error",
      "status": "resolved",
      "numEvents": 10,
      "numUsers": 10
    },
    {
      "id": "6968b125-4ab2-4137-968f-1d555745b763",
      "projectId": "6d5fff43-d691-445d-a41a-7d0c639080e6",
      "name": "TypeError",
      "message": "cyclic object value",
      "stack": "cyclic object value\n    at eval (webpack-internal:///./pages/index.tsx:37:7)\n    at invokePassiveEffectCreate (webpack-internal:///./node_modules/react-dom/cjs/react-dom.development.js:23482:20)\n    at HTMLUnknownElement.callCallback (webpack-internal:///./node_modules/react-dom/cjs/react-dom.development.js:3945:14)\n    at HTMLUnknownElement.sentryWrapped (webpack-internal:///./node_modules/@sentry/browser/esm/helpers.js:81:23)\n    at Object.invokeGuardedCallbackDev (webpack-internal:///./node_modules/react-dom/cjs/react-dom.development.js:3994:16)\n    at invokeGuardedCallback (webpack-internal:///./node_modules/react-dom/cjs/react-dom.development.js:4056:31)\n    at flushPassiveEffectsImpl (webpack-internal:///./node_modules/react-dom/cjs/react-dom.development.js:23569:9)\n    at unstable_runWithPriority (webpack-internal:///./node_modules/scheduler/cjs/scheduler.development.js:468:12)\n    at runWithPriority$1 (webpack-internal:///./node_modules/react-dom/cjs/react-dom.development.js:11276:10)\n    at flushPassiveEffects (webpack-internal:///./node_modules/react-dom/cjs/react-dom.development.js:23442:14)\n    at eval (webpack-internal:///./node_modules/react-dom/cjs/react-dom.development.js:23319:11)\n    at workLoop (webpack-internal:///./node_modules/scheduler/cjs/scheduler.development.js:417:34)\n    at flushWork (webpack-internal:///./node_modules/scheduler/cjs/scheduler.development.js:390:14)\n    at MessagePort.performWorkUntilDeadline (webpack-internal:///./node_modules/scheduler/cjs/scheduler.development.js:157:27)",
      "level": "info",
      "status": "open",
      "numEvents": 7,
      "numUsers": 7
    },
    {
      "id": "fe588078-8cd6-4ce7-af40-e30ed8f011a2",
      "projectId": "6d5fff43-d691-445d-a41a-7d0c639080e6",
      "name": "ReferenceError",
      "message": "x is not defined",
      "stack": "\"x\" is not defined\n    at eval (webpack-internal:///./pages/index.tsx:37:7)\n    at invokePassiveEffectCreate (webpack-internal:///./node_modules/react-dom/cjs/react-dom.development.js:23482:20)\n    at HTMLUnknownElement.callCallback (webpack-internal:///./node_modules/react-dom/cjs/react-dom.development.js:3945:14)\n    at HTMLUnknownElement.sentryWrapped (webpack-internal:///./node_modules/@sentry/browser/esm/helpers.js:81:23)\n    at Object.invokeGuardedCallbackDev (webpack-internal:///./node_modules/react-dom/cjs/react-dom.development.js:3994:16)\n    at invokeGuardedCallback (webpack-internal:///./node_modules/react-dom/cjs/react-dom.development.js:4056:31)\n    at flushPassiveEffectsImpl (webpack-internal:///./node_modules/react-dom/cjs/react-dom.development.js:23569:9)\n    at unstable_runWithPriority (webpack-internal:///./node_modules/scheduler/cjs/scheduler.development.js:468:12)\n    at runWithPriority$1 (webpack-internal:///./node_modules/react-dom/cjs/react-dom.development.js:11276:10)\n    at flushPassiveEffects (webpack-internal:///./node_modules/react-dom/cjs/react-dom.development.js:23442:14)\n    at eval (webpack-internal:///./node_modules/react-dom/cjs/react-dom.development.js:23319:11)\n    at workLoop (webpack-internal:///./node_modules/scheduler/cjs/scheduler.development.js:417:34)\n    at flushWork (webpack-internal:///./node_modules/scheduler/cjs/scheduler.development.js:390:14)\n    at MessagePort.performWorkUntilDeadline (webpack-internal:///./node_modules/scheduler/cjs/scheduler.development.js:157:27)",
      "level": "warning",
      "status": "resolved",
      "numEvents": 5,
      "numUsers": 5
    },
    {
      "id": "e7df3b51-c6b5-4020-8046-514471e213f7",
      "projectId": "6d5fff43-d691-445d-a41a-7d0c639080e6",
      "name": "TypeError",
      "message": "cannot use 'in' operator to search for e in W",
      "stack": "cannot use 'in' operator to search for \"x\" in \"y\"\n    at eval (webpack-internal:///./pages/index.tsx:37:7)\n    at invokePassiveEffectCreate (webpack-internal:///./node_modules/react-dom/cjs/react-dom.development.js:23482:20)\n    at HTMLUnknownElement.callCallback (webpack-internal:///./node_modules/react-dom/cjs/react-dom.development.js:3945:14)\n    at HTMLUnknownElement.sentryWrapped (webpack-internal:///./node_modules/@sentry/browser/esm/helpers.js:81:23)\n    at Object.invokeGuardedCallbackDev (webpack-internal:///./node_modules/react-dom/cjs/react-dom.development.js:3994:16)\n    at invokeGuardedCallback (webpack-internal:///./node_modules/react-dom/cjs/react-dom.development.js:4056:31)\n    at flushPassiveEffectsImpl (webpack-internal:///./node_modules/react-dom/cjs/react-dom.development.js:23569:9)\n    at unstable_runWithPriority (webpack-internal:///./node_modules/scheduler/cjs/scheduler.development.js:468:12)\n    at runWithPriority$1 (webpack-internal:///./node_modules/react-dom/cjs/react-dom.development.js:11276:10)\n    at flushPassiveEffects (webpack-internal:///./node_modules/react-dom/cjs/react-dom.development.js:23442:14)\n    at eval (webpack-internal:///./node_modules/react-dom/cjs/react-dom.development.js:23319:11)\n    at workLoop (webpack-internal:///./node_modules/scheduler/cjs/scheduler.development.js:417:34)\n    at flushWork (webpack-internal:///./node_modules/scheduler/cjs/scheduler.development.js:390:14)\n    at MessagePort.performWorkUntilDeadline (webpack-internal:///./node_modules/scheduler/cjs/scheduler.development.js:157:27)",
      "level": "error",
      "status": "open",
      "numEvents": 2,
      "numUsers": 2
    }
  ],
  "meta": {
    "currentPage": 3,
    "limit": 10,
    "totalItems": 28,
    "totalPages": 3,
    "hasPreviousPage": true,
    "hasNextPage": false
  }
}
